…
## `summarise()` regrouping output by 'x' (override with `.groups` argument)

matrix

## Warning: `...` is not empty.
## 
## We detected these problematic arguments:
## * `needs_dots`
## 
## These dots only exist to allow future extensions and should be empty.
## Did you misspecify an argument?

## # A tibble: 98 x 6
##    x     y        z1    z2 color  size
##    <chr> <chr> <dbl> <dbl> <dbl> <dbl>
##  1 A     A      30.5 29.3  29.1  29.0 
##  2 A     B      40.0 40.2  36.9  40.1 
##  3 A     C      30.0 32.5  28.5  28.3 
##  4 A     D      19.8 16.2  23.9  19.0 
##  5 A     E      11.4  9.86 10.6   9.48
##  6 A     F      10.9 10.2   9.68 10.7 
##  7 A     G      42.9 38.3  41.9  45.5 
##  8 A     H      20.5 18.6  21.2  19.7 
##  9 A     J      30.0 32.4  30.7  30.0 
## 10 B     A      28.6 28.7  31.2  29.6 
## # ... with 88 more rows
…
